%TF.GenerationSoftware,KiCad,Pcbnew,(7.0.0)*%
%TF.CreationDate,2023-05-05T04:40:01+02:00*%
%TF.ProjectId,EnviroSensingHAT_Group37,456e7669-726f-4536-956e-73696e674841,rev?*%
%TF.SameCoordinates,Original*%
%TF.FileFunction,Paste,Top*%
%TF.FilePolarity,Positive*%
%FSLAX46Y46*%
G04 Gerber Fmt 4.6, Leading zero omitted, Abs format (unit mm)*
G04 Created by KiCad (PCBNEW (7.0.0)) date 2023-05-05 04:40:01*
%MOMM*%
%LPD*%
G01*
G04 APERTURE LIST*
G04 Aperture macros list*
%AMRoundRect*
0 Rectangle with rounded corners*
0 $1 Rounding radius*
0 $2 $3 $4 $5 $6 $7 $8 $9 X,Y pos of 4 corners*
0 Add a 4 corners polygon primitive as box body*
4,1,4,$2,$3,$4,$5,$6,$7,$8,$9,$2,$3,0*
0 Add four circle primitives for the rounded corners*
1,1,$1+$1,$2,$3*
1,1,$1+$1,$4,$5*
1,1,$1+$1,$6,$7*
1,1,$1+$1,$8,$9*
0 Add four rect primitives between the rounded corners*
20,1,$1+$1,$2,$3,$4,$5,0*
20,1,$1+$1,$4,$5,$6,$7,0*
20,1,$1+$1,$6,$7,$8,$9,0*
20,1,$1+$1,$8,$9,$2,$3,0*%
%AMFreePoly0*
4,1,6,0.450000,-0.800000,-0.450000,-0.800000,-0.450000,0.530000,-0.180000,0.800000,0.450000,0.800000,0.450000,-0.800000,0.450000,-0.800000,$1*%
G04 Aperture macros list end*
%ADD10C,0.010000*%
%ADD11RoundRect,0.200000X-0.275000X0.200000X-0.275000X-0.200000X0.275000X-0.200000X0.275000X0.200000X0*%
%ADD12RoundRect,0.039000X-0.491000X-0.156000X0.491000X-0.156000X0.491000X0.156000X-0.491000X0.156000X0*%
%ADD13RoundRect,0.250000X0.650000X-0.325000X0.650000X0.325000X-0.650000X0.325000X-0.650000X-0.325000X0*%
%ADD14R,0.254000X0.900000*%
%ADD15R,0.900000X0.254000*%
%ADD16RoundRect,0.250000X0.375000X0.625000X-0.375000X0.625000X-0.375000X-0.625000X0.375000X-0.625000X0*%
%ADD17R,1.250000X0.400000*%
%ADD18R,1.350000X0.600000*%
%ADD19RoundRect,0.200000X0.275000X-0.200000X0.275000X0.200000X-0.275000X0.200000X-0.275000X-0.200000X0*%
%ADD20RoundRect,0.225000X-0.375000X0.225000X-0.375000X-0.225000X0.375000X-0.225000X0.375000X0.225000X0*%
%ADD21RoundRect,0.250000X-0.475000X0.250000X-0.475000X-0.250000X0.475000X-0.250000X0.475000X0.250000X0*%
%ADD22FreePoly0,90.000000*%
%ADD23R,0.250000X0.550000*%
%ADD24R,1.550000X0.600000*%
%ADD25RoundRect,0.225000X0.250000X-0.225000X0.250000X0.225000X-0.250000X0.225000X-0.250000X-0.225000X0*%
%ADD26RoundRect,0.079500X0.100500X-0.079500X0.100500X0.079500X-0.100500X0.079500X-0.100500X-0.079500X0*%
%ADD27RoundRect,0.150000X-0.512500X-0.150000X0.512500X-0.150000X0.512500X0.150000X-0.512500X0.150000X0*%
%ADD28RoundRect,0.150000X0.512500X0.150000X-0.512500X0.150000X-0.512500X-0.150000X0.512500X-0.150000X0*%
%ADD29RoundRect,0.200000X-0.200000X-0.275000X0.200000X-0.275000X0.200000X0.275000X-0.200000X0.275000X0*%
%ADD30RoundRect,0.130000X0.335000X0.130000X-0.335000X0.130000X-0.335000X-0.130000X0.335000X-0.130000X0*%
%ADD31RoundRect,0.087500X0.212500X0.087500X-0.212500X0.087500X-0.212500X-0.087500X0.212500X-0.087500X0*%
%ADD32RoundRect,0.250000X-0.400000X-0.600000X0.400000X-0.600000X0.400000X0.600000X-0.400000X0.600000X0*%
%ADD33R,1.320800X0.558800*%
%ADD34R,1.320800X0.508000*%
%ADD35RoundRect,0.250000X-0.650000X0.325000X-0.650000X-0.325000X0.650000X-0.325000X0.650000X0.325000X0*%
%ADD36RoundRect,0.200000X0.200000X0.275000X-0.200000X0.275000X-0.200000X-0.275000X0.200000X-0.275000X0*%
%ADD37RoundRect,0.225000X-0.250000X0.225000X-0.250000X-0.225000X0.250000X-0.225000X0.250000X0.225000X0*%
%ADD38R,2.000000X1.500000*%
%ADD39R,2.000000X3.800000*%
%ADD40RoundRect,0.218750X0.218750X0.256250X-0.218750X0.256250X-0.218750X-0.256250X0.218750X-0.256250X0*%
%ADD41RoundRect,0.250000X0.250000X0.475000X-0.250000X0.475000X-0.250000X-0.475000X0.250000X-0.475000X0*%
%ADD42RoundRect,0.250000X-0.325000X-0.650000X0.325000X-0.650000X0.325000X0.650000X-0.325000X0.650000X0*%
G04 APERTURE END LIST*
%TO.C,U4*%
G36*
X134250000Y-88660000D02*
G01*
X132997990Y-88660000D01*
X132997990Y-87407990D01*
X134250000Y-87407990D01*
X134250000Y-88660000D01*
G37*
D10*
X134250000Y-88660000D02*
X132997990Y-88660000D01*
X132997990Y-87407990D01*
X134250000Y-87407990D01*
X134250000Y-88660000D01*
G36*
X136000000Y-88660000D02*
G01*
X134750137Y-88660000D01*
X134750137Y-87409180D01*
X136000000Y-87409180D01*
X136000000Y-88660000D01*
G37*
X136000000Y-88660000D02*
X134750137Y-88660000D01*
X134750137Y-87409180D01*
X136000000Y-87409180D01*
X136000000Y-88660000D01*
G36*
X134250000Y-90410000D02*
G01*
X132999520Y-90410000D01*
X132999520Y-89160080D01*
X134250000Y-89160080D01*
X134250000Y-90410000D01*
G37*
X134250000Y-90410000D02*
X132999520Y-90410000D01*
X132999520Y-89160080D01*
X134250000Y-89160080D01*
X134250000Y-90410000D01*
G36*
X136000000Y-90410000D02*
G01*
X134750446Y-90410000D01*
X134750446Y-89160446D01*
X136000000Y-89160446D01*
X136000000Y-90410000D01*
G37*
X136000000Y-90410000D02*
X134750446Y-90410000D01*
X134750446Y-89160446D01*
X136000000Y-89160446D01*
X136000000Y-90410000D01*
%TD*%
D11*
%TO.C,R9*%
X180300000Y-139475000D03*
X180300000Y-141125000D03*
%TD*%
%TO.C,R10*%
X190200000Y-139575000D03*
X190200000Y-141225000D03*
%TD*%
%TO.C,R2*%
X182000000Y-93675000D03*
X182000000Y-95325000D03*
%TD*%
D12*
%TO.C,U8*%
X112815000Y-88600000D03*
X112815000Y-89250000D03*
X112815000Y-89900000D03*
X114685000Y-89900000D03*
X114685000Y-89250000D03*
X114685000Y-88600000D03*
%TD*%
D13*
%TO.C,C2*%
X187500000Y-86475000D03*
X187500000Y-83525000D03*
%TD*%
D11*
%TO.C,R3*%
X182000000Y-85925000D03*
X182000000Y-87575000D03*
%TD*%
D14*
%TO.C,U4*%
X135999999Y-86319999D03*
X135499999Y-86319999D03*
X134999999Y-86319999D03*
X134499999Y-86319999D03*
X133999999Y-86319999D03*
X133499999Y-86319999D03*
X132999999Y-86319999D03*
D15*
X131909999Y-87409999D03*
X131909999Y-87909999D03*
X131909999Y-88409999D03*
X131909999Y-88909999D03*
X131909999Y-89409999D03*
X131909999Y-89909999D03*
X131909999Y-90409999D03*
D14*
X132999999Y-91499999D03*
X133499999Y-91499999D03*
X133999999Y-91499999D03*
X134499999Y-91499999D03*
X134999999Y-91499999D03*
X135499999Y-91499999D03*
X135999999Y-91499999D03*
D15*
X137089999Y-90409999D03*
X137089999Y-89909999D03*
X137089999Y-89409999D03*
X137089999Y-88909999D03*
X137089999Y-88409999D03*
X137089999Y-87909999D03*
X137089999Y-87409999D03*
%TD*%
D16*
%TO.C,F1*%
X182400000Y-99750000D03*
X179600000Y-99750000D03*
%TD*%
D17*
%TO.C,J2*%
X109624999Y-90099999D03*
X109624999Y-90749999D03*
X109624999Y-91399999D03*
X109624999Y-92049999D03*
X109624999Y-92699999D03*
D18*
X106974999Y-92199999D03*
X106974999Y-90599999D03*
%TD*%
D17*
%TO.C,J3*%
X109649999Y-111499999D03*
X109649999Y-112149999D03*
X109649999Y-112799999D03*
X109649999Y-113449999D03*
X109649999Y-114099999D03*
D18*
X106999999Y-113599999D03*
X106999999Y-111999999D03*
%TD*%
D19*
%TO.C,R7*%
X178200000Y-136025000D03*
X178200000Y-134375000D03*
%TD*%
D20*
%TO.C,D3*%
X171500000Y-91850000D03*
X171500000Y-95150000D03*
%TD*%
D21*
%TO.C,C8*%
X186250000Y-114911250D03*
X186250000Y-116811250D03*
%TD*%
D11*
%TO.C,R13*%
X138750000Y-132675000D03*
X138750000Y-134325000D03*
%TD*%
D19*
%TO.C,R1*%
X163500000Y-85075000D03*
X163500000Y-83425000D03*
%TD*%
D22*
%TO.C,U5*%
X184350000Y-145175000D03*
D23*
X183599999Y-146349999D03*
X184099999Y-146349999D03*
X184599999Y-146349999D03*
X185099999Y-146349999D03*
X185099999Y-143999999D03*
X184599999Y-143999999D03*
X184099999Y-143999999D03*
X183599999Y-143999999D03*
%TD*%
D24*
%TO.C,U9*%
X118299999Y-124594999D03*
X118299999Y-125864999D03*
X118299999Y-127134999D03*
X118299999Y-128404999D03*
X123699999Y-128404999D03*
X123699999Y-127134999D03*
X123699999Y-125864999D03*
X123699999Y-124594999D03*
%TD*%
D25*
%TO.C,C13*%
X123250000Y-94025000D03*
X123250000Y-92475000D03*
%TD*%
D26*
%TO.C,C7*%
X183300000Y-142045000D03*
X183300000Y-141355000D03*
%TD*%
D27*
%TO.C,Q1*%
X177362500Y-93550000D03*
X177362500Y-95450000D03*
X179637500Y-94500000D03*
%TD*%
D28*
%TO.C,U2*%
X187387500Y-93450000D03*
X187387500Y-92500000D03*
X187387500Y-91550000D03*
X185112500Y-91550000D03*
X185112500Y-93450000D03*
%TD*%
D25*
%TO.C,C5*%
X126250000Y-94025000D03*
X126250000Y-92475000D03*
%TD*%
D21*
%TO.C,C9*%
X191250000Y-114911250D03*
X191250000Y-116811250D03*
%TD*%
D29*
%TO.C,R6*%
X126425000Y-78750000D03*
X128075000Y-78750000D03*
%TD*%
D30*
%TO.C,U1*%
X168250000Y-84825000D03*
X168250000Y-84175000D03*
D31*
X169325000Y-85000000D03*
X169325000Y-84500000D03*
X169325000Y-84000000D03*
X167175000Y-84000000D03*
X167175000Y-84500000D03*
X167175000Y-85000000D03*
%TD*%
D29*
%TO.C,R12*%
X183350000Y-129511250D03*
X185000000Y-129511250D03*
%TD*%
D32*
%TO.C,D2*%
X131500000Y-79000000D03*
X135000000Y-79000000D03*
%TD*%
D21*
%TO.C,C10*%
X178150000Y-128811250D03*
X178150000Y-130711250D03*
%TD*%
D33*
%TO.C,U6*%
X186307799Y-122171449D03*
X186307799Y-124051049D03*
D34*
X188492199Y-123111249D03*
%TD*%
D35*
%TO.C,C1*%
X166750000Y-98775000D03*
X166750000Y-101725000D03*
%TD*%
D36*
%TO.C,R18*%
X135825000Y-136500000D03*
X134175000Y-136500000D03*
%TD*%
D37*
%TO.C,C11*%
X130500000Y-83475000D03*
X130500000Y-85025000D03*
%TD*%
D11*
%TO.C,R8*%
X176000000Y-139175000D03*
X176000000Y-140825000D03*
%TD*%
D38*
%TO.C,U3*%
X170849999Y-104699999D03*
X170849999Y-106999999D03*
D39*
X177149999Y-106999999D03*
D38*
X170849999Y-109299999D03*
%TD*%
D11*
%TO.C,R4*%
X130250000Y-93175000D03*
X130250000Y-94825000D03*
%TD*%
D40*
%TO.C,D1*%
X191100000Y-129661250D03*
X189525000Y-129661250D03*
%TD*%
D29*
%TO.C,R17*%
X134175000Y-127000000D03*
X135825000Y-127000000D03*
%TD*%
D41*
%TO.C,C3*%
X177450000Y-89500000D03*
X175550000Y-89500000D03*
%TD*%
D42*
%TO.C,C4*%
X181275000Y-106250000D03*
X184225000Y-106250000D03*
%TD*%
M02*
