(kicad_sch (version 20230121) (generator eeschema)

  (uuid 97d3fa17-4c79-4f46-8965-119bddaff4f9)

  (paper "A4")

  (title_block
    (title "University of Cape Town")
    (date "2023-03-12")
    (rev "v4.0")
    (company "UCT")
    (comment 4 "Enviro Sensing HAT")
  )

  (lib_symbols
  )


  (wire (pts (xy 166.37 59.69) (xy 173.99 59.69))
    (stroke (width 0) (type default))
    (uuid 01c921d6-e6c5-49fb-827b-7c13e6ba3306)
  )
  (wire (pts (xy 260.35 125.73) (xy 267.97 125.73))
    (stroke (width 0) (type default))
    (uuid 13700d98-31f7-4dd3-a355-2bf34cb11207)
  )
  (wire (pts (xy 162.56 132.08) (xy 172.72 132.08))
    (stroke (width 0) (type default))
    (uuid 27bd18ac-a465-453a-8f76-0236d042cb21)
  )
  (wire (pts (xy 261.62 55.88) (xy 269.24 55.88))
    (stroke (width 0) (type default))
    (uuid 3f84d5d8-1ab0-415c-a268-550a2ad6160b)
  )
  (wire (pts (xy 260.35 119.38) (xy 267.97 119.38))
    (stroke (width 0) (type default))
    (uuid 43ff42e1-2675-4fb7-983f-be23b481e11e)
  )
  (wire (pts (xy 261.62 50.8) (xy 269.24 50.8))
    (stroke (width 0) (type default))
    (uuid 68724f32-130c-40e1-acac-2955099dfe4b)
  )
  (wire (pts (xy 115.57 60.96) (xy 124.46 60.96))
    (stroke (width 0) (type default))
    (uuid 74553f98-dfca-4c45-b09b-b9b6f8a067fe)
  )
  (wire (pts (xy 115.57 46.99) (xy 124.46 46.99))
    (stroke (width 0) (type default))
    (uuid be499b06-bc41-43dd-b707-510e7115508e)
  )
  (wire (pts (xy 172.72 113.03) (xy 162.56 113.03))
    (stroke (width 0) (type default))
    (uuid cd6dee4d-59a4-41ae-9fc3-5d2308c51129)
  )
  (wire (pts (xy 260.35 133.35) (xy 267.97 133.35))
    (stroke (width 0) (type default))
    (uuid eb7db116-fd0f-480a-a28a-a71a1c3a1032)
  )
  (wire (pts (xy 261.62 45.72) (xy 269.24 45.72))
    (stroke (width 0) (type default))
    (uuid f23343b0-a307-4cf7-8b37-35758d49a343)
  )
  (wire (pts (xy 166.37 38.1) (xy 173.99 38.1))
    (stroke (width 0) (type default))
    (uuid f64254ba-f0a2-40e4-889b-2ec39a1a49e2)
  )

  (label "+3V" (at 162.56 113.03 180) (fields_autoplaced)
    (effects (font (size 1.27 1.27) bold) (justify right bottom))
    (uuid 13706add-254b-4bcc-b149-f999659a5ad1)
  )
  (label "Data" (at 269.24 45.72 0) (fields_autoplaced)
    (effects (font (size 1.27 1.27) bold) (justify left bottom))
    (uuid 28784974-a8fc-4576-b079-b5c99ac28460)
  )
  (label "5V5" (at 124.46 60.96 0) (fields_autoplaced)
    (effects (font (size 1.27 1.27) bold) (justify left bottom))
    (uuid 3975a6ca-e616-438a-9ca0-bdb3430dab20)
  )
  (label "Data" (at 267.97 119.38 0) (fields_autoplaced)
    (effects (font (size 1.27 1.27) bold) (justify left bottom))
    (uuid 39ad902e-f2b4-4b5f-801d-ffddb3400965)
  )
  (label "AV" (at 267.97 133.35 0) (fields_autoplaced)
    (effects (font (size 1.27 1.27) bold) (justify left bottom))
    (uuid 846e351c-b9e9-482b-9eef-1222c53288d7)
  )
  (label "+3V" (at 124.46 46.99 0) (fields_autoplaced)
    (effects (font (size 1.27 1.27) bold) (justify left bottom))
    (uuid 9b312632-496d-4f40-904e-90b8ba6a6682)
  )
  (label "Clock" (at 269.24 50.8 0) (fields_autoplaced)
    (effects (font (size 1.27 1.27) bold) (justify left bottom))
    (uuid b35bae4f-1de9-4dcb-a264-2ed285945aac)
  )
  (label "Clock" (at 267.97 125.73 0) (fields_autoplaced)
    (effects (font (size 1.27 1.27) bold) (justify left bottom))
    (uuid d026cc16-9a62-48c2-a194-71f24c89b3b6)
  )
  (label "+3V" (at 166.37 38.1 180) (fields_autoplaced)
    (effects (font (size 1.27 1.27) bold) (justify right bottom))
    (uuid de19a7d4-1c10-4cb2-90c3-cf4be3cfe863)
  )
  (label "5V5" (at 162.56 132.08 180) (fields_autoplaced)
    (effects (font (size 1.27 1.27) bold) (justify right bottom))
    (uuid de57d745-9788-4509-922e-e15efe37d709)
  )
  (label "AV" (at 269.24 55.88 0) (fields_autoplaced)
    (effects (font (size 1.27 1.27) bold) (justify left bottom))
    (uuid df654206-223f-46c0-8df6-6e84addd9dce)
  )
  (label "5V5" (at 166.37 59.69 180) (fields_autoplaced)
    (effects (font (size 1.27 1.27) bold) (justify right bottom))
    (uuid f831a058-419a-45d6-b561-3fefddf56573)
  )

  (sheet (at 27.94 26.67) (size 87.63 50.165) (fields_autoplaced)
    (stroke (width 0.2) (type solid))
    (fill (color 0 0 0 0.0000))
    (uuid 3149c889-e688-42b0-a39c-9ae1b40fbf1f)
    (property "Sheetname" "Power Subsystem" (at 27.94 25.5934 0)
      (effects (font (size 2 2) bold) (justify left bottom))
    )
    (property "Sheetfile" "power_subsystem.kicad_sch" (at 27.94 77.4196 0)
      (effects (font (size 1.27 1.27)) (justify left top))
    )
    (pin "3V3" output (at 115.57 46.99 0)
      (effects (font (size 1.27 1.27) (thickness 0.254) bold) (justify right))
      (uuid 1fe63439-5602-4561-b7a2-62ff44217de3)
    )
    (pin "5V5" input (at 115.57 60.96 0)
      (effects (font (size 1.27 1.27) (thickness 0.254) bold) (justify right))
      (uuid 7036c0b7-dd18-4585-9e84-27e971d30c37)
    )
    (instances
      (project "EnviroSensingHAT_Group37"
        (path "/97d3fa17-4c79-4f46-8965-119bddaff4f9" (page "2"))
      )
    )
  )

  (sheet (at 172.72 97.917) (size 87.63 50.165) (fields_autoplaced)
    (stroke (width 0.2) (type solid))
    (fill (color 0 0 0 0.0000))
    (uuid b08696fc-7bcb-483b-b304-e8f9c7ea9277)
    (property "Sheetname" "Microcontroller Subsystem" (at 172.72 96.8404 0)
      (effects (font (size 2 2) bold) (justify left bottom))
    )
    (property "Sheetfile" "microcontroller_subsystem.kicad_sch" (at 172.72 148.6666 0)
      (effects (font (size 1.27 1.27)) (justify left top))
    )
    (pin "3V3" input (at 172.72 113.03 180)
      (effects (font (size 1.27 1.27) (thickness 0.254) bold) (justify left))
      (uuid c13793d4-0b30-4ec4-b9ed-d7fa672b2a79)
    )
    (pin "I2C Data" bidirectional (at 260.35 119.38 0)
      (effects (font (size 1.27 1.27) (thickness 0.254) bold) (justify right))
      (uuid d1a032a5-88dd-4534-8fc6-92d44c6d999c)
    )
    (pin "I2C Clock" bidirectional (at 260.35 125.73 0)
      (effects (font (size 1.27 1.27) (thickness 0.254) bold) (justify right))
      (uuid aaa18985-2001-48b8-9c76-343157127825)
    )
    (pin "Analogue_Voltage" input (at 260.35 133.35 0)
      (effects (font (size 1.27 1.27) (thickness 0.254) bold) (justify right))
      (uuid 49655c71-16fa-4ebe-871d-ad6ab4e21215)
    )
    (pin "5V5" output (at 172.72 132.08 180)
      (effects (font (size 1.27 1.27) (thickness 0.254) bold) (justify left))
      (uuid cce2f2bf-c91f-44d6-a68f-8bb06401b542)
    )
    (instances
      (project "EnviroSensingHAT_Group37"
        (path "/97d3fa17-4c79-4f46-8965-119bddaff4f9" (page "4"))
      )
    )
  )

  (sheet (at 173.99 27.305) (size 87.63 50.165) (fields_autoplaced)
    (stroke (width 0.2) (type solid))
    (fill (color 0 0 0 0.0000))
    (uuid cc4802a3-d344-4e20-b4ff-76eacc6e7bb0)
    (property "Sheetname" "Sensing Subsystem" (at 173.99 26.2284 0)
      (effects (font (size 2 2) bold) (justify left bottom))
    )
    (property "Sheetfile" "sensing_subsystem.kicad_sch" (at 173.99 78.0546 0)
      (effects (font (size 1.27 1.27)) (justify left top))
    )
    (pin "3V3" input (at 173.99 38.1 180)
      (effects (font (size 1.27 1.27) (thickness 0.254) bold) (justify left))
      (uuid f3d1b798-12b4-489d-9c80-1c76c51a99eb)
    )
    (pin "Analogue_Voltage" output (at 261.62 55.88 0)
      (effects (font (size 1.27 1.27) (thickness 0.254) bold) (justify right))
      (uuid 1710f9e8-8770-4387-a362-573b85b7b132)
    )
    (pin "I2C Clock" output (at 261.62 50.8 0)
      (effects (font (size 1.27 1.27) (thickness 0.254) bold) (justify right))
      (uuid a7ba442b-4738-433f-8a30-e2330684070d)
    )
    (pin "I2C Data" output (at 261.62 45.72 0)
      (effects (font (size 1.27 1.27) (thickness 0.254) bold) (justify right))
      (uuid 7a2a89f0-04ba-46c6-b330-dd85150a36c2)
    )
    (pin "5V5" input (at 173.99 59.69 180)
      (effects (font (size 1.27 1.27) (thickness 0.254) bold) (justify left))
      (uuid fd04114a-5d2e-4e5f-bdf0-e0642b2cedf7)
    )
    (instances
      (project "EnviroSensingHAT_Group37"
        (path "/97d3fa17-4c79-4f46-8965-119bddaff4f9" (page "3"))
      )
    )
  )

  (sheet_instances
    (path "/" (page "1"))
  )
)
