(footprint "BEADC1608X95N" (version 20221018) (generator pcbnew)
  (layer "F.Cu")
  (attr smd)
  (fp_text reference "REF**" (at 0.039 -1.4398) (layer "F.SilkS")
      (effects (font (size 0.48 0.48) (thickness 0.15)))
    (tstamp 3f1aa619-a591-4b3c-be5e-38d7f475ca93)
  )
  (fp_text value "BEADC1608X95N" (at 2.4774 1.3398) (layer "F.Fab")
      (effects (font (size 0.48 0.48) (thickness 0.15)))
    (tstamp 3ce08756-dfd4-4978-bc01-de6b3fcc74ec)
  )
  (fp_line (start -1.49 -0.864) (end 1.49 -0.864)
    (stroke (width 0.05) (type solid)) (layer "F.CrtYd") (tstamp 86b7c763-d531-432b-81d7-f26b9361cee3))
  (fp_line (start -1.49 0.864) (end -1.49 -0.864)
    (stroke (width 0.05) (type solid)) (layer "F.CrtYd") (tstamp 16068a5e-f05a-402d-bb74-39f83433b451))
  (fp_line (start 1.49 -0.864) (end 1.49 0.864)
    (stroke (width 0.05) (type solid)) (layer "F.CrtYd") (tstamp 9f71a494-cc38-4c45-8067-7686bcec9b65))
  (fp_line (start 1.49 0.864) (end -1.49 0.864)
    (stroke (width 0.05) (type solid)) (layer "F.CrtYd") (tstamp 795215de-390d-4a15-adcb-6f33172a42c9))
  (fp_line (start -0.8 -0.4) (end 0.8 -0.4)
    (stroke (width 0.127) (type solid)) (layer "F.Fab") (tstamp 40bdb752-fe11-487a-8fb1-4fcadb946b37))
  (fp_line (start -0.8 0.4) (end -0.8 -0.4)
    (stroke (width 0.127) (type solid)) (layer "F.Fab") (tstamp c536b591-f15d-4211-9e49-7778e3acf94f))
  (fp_line (start 0.8 -0.4) (end 0.8 0.4)
    (stroke (width 0.127) (type solid)) (layer "F.Fab") (tstamp b86c0b8c-5b46-4e3a-9375-74ea32c82239))
  (fp_line (start 0.8 0.4) (end -0.8 0.4)
    (stroke (width 0.127) (type solid)) (layer "F.Fab") (tstamp ea0b1fbc-3c4b-4262-b801-b4f9eac24b83))
  (pad "1" smd rect (at -0.785 0) (size 0.9 0.97) (layers "F.Cu" "F.Paste" "F.Mask") (tstamp f2137e3d-4bbd-4a36-8218-aa57db991d83))
  (pad "2" smd rect (at 0.785 0) (size 0.9 0.97) (layers "F.Cu" "F.Paste" "F.Mask") (tstamp 4329f22f-cade-456e-82ba-40174e66be51))
)
