
(footprint SOT229P700X180-4N (layer F.Cu) (tedit 64183315)
  (descr "")
  (attr smd)
  (fp_text reference REF** (at -0.3275 -5.885 0) (layer F.SilkS)
    (effects (font (size 1.0 1.0) (thickness 0.15)))
  )
  (fp_text value SOT229P700X180-4N (at 7.2925 6.085 0) (layer F.Fab)
    (effects (font (size 1.0 1.0) (thickness 0.15)))
  )
  (pad 1 smd roundrect (roundrect_rratio 0.07) (at -3.345 -2.29) (size 1.31 0.93) (layers F.Cu F.Mask F.Paste))
  (pad 2 smd roundrect (roundrect_rratio 0.07) (at -3.345 0.0) (size 1.31 0.93) (layers F.Cu F.Mask F.Paste))
  (pad 3 smd roundrect (roundrect_rratio 0.07) (at -3.345 2.29) (size 1.31 0.93) (layers F.Cu F.Mask F.Paste))
  (pad 4 smd roundrect (roundrect_rratio 0.24) (at 3.345 0.0) (size 1.31 3.24) (layers F.Cu F.Mask F.Paste))
  (fp_line (start -1.7525 -3.2525) (end 1.7525 -3.2525) (layer F.Fab) (width 0.127))
  (fp_line (start 1.7525 -3.2525) (end 1.7525 3.2525) (layer F.Fab) (width 0.127))
  (fp_line (start 1.7525 3.2525) (end -1.7525 3.2525) (layer F.Fab) (width 0.127))
  (fp_line (start -1.7525 3.2525) (end -1.7525 -3.2525) (layer F.Fab) (width 0.127))
  (fp_line (start -1.7525 -3.2525) (end 1.7525 -3.2525) (layer F.SilkS) (width 0.127))
  (fp_line (start 1.7525 -3.2525) (end 1.7525 3.2525) (layer F.SilkS) (width 0.127))
  (fp_line (start 1.7525 3.2525) (end -1.7525 3.2525) (layer F.SilkS) (width 0.127))
  (fp_line (start -1.7525 3.2525) (end -1.7525 -3.2525) (layer F.SilkS) (width 0.127))
  (fp_line (start 4.25 -3.5025) (end -4.25 -3.5025) (layer F.CrtYd) (width 0.05))
  (fp_line (start -4.25 -3.5025) (end -4.25 3.5025) (layer F.CrtYd) (width 0.05))
  (fp_line (start -4.25 3.5025) (end 4.25 3.5025) (layer F.CrtYd) (width 0.05))
  (fp_line (start 4.25 3.5025) (end 4.25 -3.5025) (layer F.CrtYd) (width 0.05))
  (fp_circle (center -5.0 -2.29) (end -4.9 -2.29) (layer F.SilkS) (width 0.2))
  (fp_circle (center -5.0 -2.29) (end -4.9 -2.29) (layer F.Fab) (width 0.2))
)